Chapter 3 Taller VECTORES: Aplicación de software de información geográfica y modelado (no terminado) | Seminário Latinoamericano: Instrumentos y metodologias para un observatório de Clima y su impact
…
Iremos a calcular el buffer de cada centroid, sin embargo, primeros vamos a proyectar nuestros datos para UTM con un usado codigo llamado EPSG (European Petroleum Survey Group), como muestra este blog cafe geodesico. Asi cada provincia podria tener un EPSG diferente, para simplificar este curso, utilizaremos el codigo epsg 5346.

Para transformar nuestros datos, tenemos que:

dft <- st_transform(cent, 5346)
dft

## Simple feature collection with 23 features and 8 fields
## geometry type:  POINT
## dimension:      XY
## bbox:           xmin: 3879876 ymin: 4569475 xmax: 5331263 ymax: 7419288
## epsg (SRID):    5346
## proj4string:    +proj=tmerc +lat_0=-90 +lon_0=-63 +k=1 +x_0=4500000 +y_0=0 +ellps=GRS80 +towgs84=0,0,0,0,0,0,0 +units=m +no_defs
## # A tibble: 23 x 9
##    entidad objeto fna   gna   nam   in1   fdc   sag  
##      <int> <chr>  <chr> <chr> <chr> <chr> <chr> <chr>
##  1       0 Provi… Ciud… Ciud… Ciud… 02    Geog… IGN  
##  2       0 Provi… del … Prov… Neuq… 58    Geog… IGN  
##  3       0 Provi… de L… Prov… La P… 42    Geog… IGN  
##  4       0 Provi… de M… Prov… Mend… 50    Geog… IGN  
##  5       0 Provi… de S… Prov… San … 74    Geog… IGN  
##  6       0 Provi… de C… Prov… Córd… 14    Geog… IGN  
##  7       0 Provi… de S… Prov… Sant… 82    Geog… IGN  
##  8       0 Provi… de E… Prov… Entr… 30    Geog… IGN  
##  9       0 Provi… de S… Prov… San … 70    Geog… IGN  
## 10       0 Provi… de L… Prov… La R… 46    Geog… IGN  
## # … with 13 more rows, and 1 more variable: geometry <POINT [m]>
…
